{
  "version": 5,
  "lastUserContextId": 7,
  "identities": [
    {
      "userContextId": 6,
      "public": true,
      "icon": "circle",
      "color": "pink",
      "name": "personal"
    },
    {
      "userContextId": 7,
      "public": true,
      "icon": "circle",
      "color": "red",
      "name": "school"
    }
  ]
}
